Portfolio analysis
…
## # A tibble: 66 x 10
##    NDQ.AX A200.AX ASIA.AX mean_price_ratio sd_price_ratio mean_log_price_ratio
##     <dbl>   <dbl>   <dbl>            <dbl>          <dbl>                <dbl>
##  1    0         0     1               1.02         0.0569               0.0194
##  2    0.1       0     0.9             1.02         0.0541               0.0190
##  3    0.2       0     0.8             1.02         0.0516               0.0187
##  4    0.3       0     0.7             1.02         0.0495               0.0183
##  5    0.4       0     0.6             1.02         0.0477               0.0179
##  6    0.5       0     0.5             1.02         0.0462               0.0175
##  7    0.6       0     0.4             1.02         0.0453               0.0170
##  8    0.7       0     0.3             1.02         0.0448               0.0165
##  9    0.8       0     0.2             1.02         0.0447               0.0161
## 10    0.9       0     0.1             1.02         0.0452               0.0155
## #  with 56 more rows, and 4 more variables: sd_log_price_ratio <dbl>,
## #   ID <int>, expected_value_yr5 <dbl>, probability_loss <dbl>
…
## # A tibble: 66 x 10
##    NDQ.AX A200.AX ASIA.AX mean_price_ratio sd_price_ratio mean_log_price_ratio
##     <dbl>   <dbl>   <dbl>            <dbl>          <dbl>                <dbl>
##  1    0         0     1               1.00         0.0147             0.000939
##  2    0.1       0     0.9             1.00         0.0142             0.000934
##  3    0.2       0     0.8             1.00         0.0137             0.000927
##  4    0.3       0     0.7             1.00         0.0133             0.000919
##  5    0.4       0     0.6             1.00         0.0130             0.000909
##  6    0.5       0     0.5             1.00         0.0128             0.000898
##  7    0.6       0     0.4             1.00         0.0127             0.000885
##  8    0.7       0     0.3             1.00         0.0127             0.000871
##  9    0.8       0     0.2             1.00         0.0129             0.000855
## 10    0.9       0     0.1             1.00         0.0132             0.000838
## #  with 56 more rows, and 4 more variables: sd_log_price_ratio <dbl>,
## #   ID <int>, expected_value_yr5 <dbl>, probability_loss <dbl>
…
